﻿# Make sure the weights here match up best as possible with the custom_beards set
beards = {

	usage = game

    selection_behavior = weighted_random

	no_beard_for_children = {
        dna_modifiers = {
            accessory = {
                mode = add
                gene = beards
                template = no_beard
                range = { 0 1 } # For the randomness to work correctly
            }
        }   
        weight = {
            base = 0
            modifier = {
                add = 100
                age < 18
            }
        }
    }

    has_no_beard = { # This is to give a random chance of a clean shaven look
        dna_modifiers = {
            accessory = {
                mode = add
                gene = beards
                template = no_beard
                range = { 0 1 } # For the randomness to work correctly
            }
        }   
        weight = {
            base = 30 
            modifier = {
                add = -50
                OR = {
                    is_from_ruler_designer = yes
                    has_character_flag = has_scripted_appearance
                }
            }
            portrait_clean_shaven_clothing_modifier = yes
        }
    }

    western_straight = {
        dna_modifiers = {
            accessory = {
                mode = add
                gene = beards
                template = western_beards_straight
                range = { 0 1 } # For the randomness to work correctly
            }
        }   
        # outfit_tags = { no_clothes }
        weight = {
            base = 0
            modifier = {
                add = 70
                OR = {
                    has_gene = {
                        category = gene_hair_type
                        template = hair_straight
                    }       
                    has_gene = {
                        category = gene_hair_type
                        template = hair_wavy
                    }            
                }
                OR = {
                    portrait_western_clothing_trigger = yes
                    portrait_byzantine_clothing_trigger = yes
                }
            }
            modifier = { # Muslims should always have a beard
                add = 200
                religion = religion:islam_religion
                portrait_western_clothing_trigger = yes
            }
            modifier = {
                add = -100
                OR = {
                    is_from_ruler_designer = yes
                    has_character_flag = has_scripted_appearance
                }
            }
        }
    }

    western_curly = {
        dna_modifiers = {
            accessory = {
                mode = add
                gene = beards
                template = western_beards_curly
                range = { 0 1 } # For the randomness to work correctly
            }
        }   
        # outfit_tags = { no_clothes }
        weight = {
            base = 0
            modifier = {
                add = 70
                OR = {
                     has_gene = {
                        category = gene_hair_type
                        template = hair_wavy
                    }       
                     has_gene = {
                        category = gene_hair_type
                        template = hair_curly
                    }            
                }
                OR = {
                    portrait_western_clothing_trigger = yes
                    portrait_byzantine_clothing_trigger = yes
                }
            }
            modifier = { # Muslims should always have a beard
                add = 200
                religion = religion:islam_religion
                portrait_western_clothing_trigger = yes
            }
            modifier = {
                add = -100
                OR = {
                    is_from_ruler_designer = yes
                    has_character_flag = has_scripted_appearance
                }
            }
        }
    }

    mena_straight = {
        dna_modifiers = {
            accessory = {
                mode = add
                gene = beards
                template = mena_beards_straight
                range = { 0 1 } # For the randomness to work correctly
            }
        }   
        # outfit_tags = { no_clothes }
        weight = {
            base = 0
            modifier = {
                add = 70
                OR = {
                     has_gene = {
                        category = gene_hair_type
                        template = hair_straight
                    }       
                    has_gene = {
                        category = gene_hair_type
                        template = hair_wavy
                    }            
                }
				OR = {
					portrait_mena_clothing_trigger = yes
					portrait_african_clothing_trigger = yes
				}
            }
            modifier = { # Muslims should always have a beard
                add = 200
                religion = religion:islam_religion
                OR = {
					portrait_mena_clothing_trigger = yes
					portrait_african_clothing_trigger = yes
				}
                NOT = { # The Prophet Muhammad does not have a portrait
                    this = character:33922 # Prophet Muhammad
                }
            }
            modifier = {
                add = -100
                OR = {
                    is_from_ruler_designer = yes
                    has_character_flag = has_scripted_appearance
                    this = character:33922 # Prophet Muhammad
                }
            }
        }
    }

    mena_curly = {
        dna_modifiers = {
            accessory = {
                mode = add
                gene = beards
                template = mena_beards_curly
                range = { 0 1 } # For the randomness to work correctly
            }
        }   
        # outfit_tags = { no_clothes }
        weight = {
            base = 0
            modifier = {
                add = 70
                OR = {
                     has_gene = {
                        category = gene_hair_type
                        template = hair_wavy
                    }       
                    has_gene = {
                        category = gene_hair_type
                        template = hair_curly
                    }            
                }
                OR = {
					portrait_mena_clothing_trigger = yes
					portrait_african_clothing_trigger = yes
				}
            }
            modifier = { # Muslims should always have a beard
                add = 200
                religion = religion:islam_religion
                OR = {
					portrait_mena_clothing_trigger = yes
					portrait_african_clothing_trigger = yes
				}
                NOT = { # The Prophet Muhammad does not have a portrait
                    this = character:33922 # Prophet Muhammad
                }
            }
            modifier = {
                add = -100
                OR = {
                    is_from_ruler_designer = yes
                    has_character_flag = has_scripted_appearance
                    this = character:33922 # Prophet Muhammad
                }
            }
        }
    }

    indian_straight = {
        dna_modifiers = {
            accessory = {
                mode = add
                gene = beards
                template = indian_beards_straight
                range = { 0 1 } # For the randomness to work correctly
            }
        }   
        # outfit_tags = { no_clothes }
        weight = {
            base = 0
            modifier = {
                add = 70
                OR = {
                     has_gene = {
                        category = gene_hair_type
                        template = hair_straight
                    }       
                    has_gene = {
                        category = gene_hair_type
                        template = hair_wavy
                    }            
                }
                portrait_indian_clothing_trigger = yes
            }
            modifier = { # Muslims should always have a beard
                add = 200
                religion = religion:islam_religion
                portrait_indian_clothing_trigger = yes
            }
            modifier = {
                add = -100
                OR = {
                    is_from_ruler_designer = yes
                    has_character_flag = has_scripted_appearance
                }
            }
        }
    }

    indian_curly = {
        dna_modifiers = {
            accessory = {
                mode = add
                gene = beards
                template = indian_beards_curly
                range = { 0 1 } # For the randomness to work correctly
            }
        }   
        # outfit_tags = { no_clothes }
        weight = {
            base = 0
            modifier = {
                add = 70
                OR = {
                     has_gene = {
                        category = gene_hair_type
                        template = hair_wavy
                    }       
                    has_gene = {
                        category = gene_hair_type
                        template = hair_curly
                    }            
                }
                portrait_indian_clothing_trigger = yes
            }
            modifier = { # Muslims should always have a beard
                add = 200
                religion = religion:islam_religion
                portrait_indian_clothing_trigger = yes
            }
            modifier = {
                add = -100
                OR = {
                    is_from_ruler_designer = yes
                    has_character_flag = has_scripted_appearance
                }
            }
        }
    }

    thin_beards = {
        dna_modifiers = {
            accessory = {
                mode = add
                gene = beards
                template = thin_beards_straight
                range = { 0 1 } # For the randomness to work correctly
            }
        }   
        # outfit_tags = { no_clothes }
        weight = {
            base = 0
            modifier = {
                add = 70
                has_gene = {
                    category = gene_hair_type
                    template = hair_straight_thin_beard
                }
            }
            modifier = { # Muslims should always have a beard
                add = 200
                religion = religion:islam_religion
                has_gene = {
                    category = gene_hair_type
                    template = hair_straight_thin_beard
                }
            }
            modifier = {
                add = -100
                OR = {
                    is_from_ruler_designer = yes
                    has_character_flag = has_scripted_appearance
                }
            }
        }
    }

    steppe_straight = {
        dna_modifiers = {
            accessory = {
                mode = add
                gene = beards
                template = steppe_beards_straight
                range = { 0 1 } # For the randomness to work correctly
            }
        }   
        # outfit_tags = { no_clothes }
        weight = {
            base = 0
            modifier = {
                add = 50
                OR = {
                     has_gene = {
                        category = gene_hair_type
                        template = hair_straight
                    }       
                    has_gene = {
                        category = gene_hair_type
                        template = hair_wavy
                    }            
                }
                portrait_steppe_clothing_trigger = yes
            }
            modifier = { # Muslims should always have a beard
                add = 200
                religion = religion:islam_religion
                portrait_steppe_clothing_trigger = yes
            }
            modifier = {
                add = -100
                OR = {
                    is_from_ruler_designer = yes
                    has_character_flag = has_scripted_appearance
                }
            }
        }
    }

    steppe_curly = {
        dna_modifiers = {
            accessory = {
                mode = add
                gene = beards
                template = steppe_beards_curly
                range = { 0 1 } # For the randomness to work correctly
            }
        }   
        # outfit_tags = { no_clothes }
        weight = {
            base = 0
            modifier = {
                add = 50
                OR = {
                     has_gene = {
                        category = gene_hair_type
                        template = hair_wavy
                    }       
                    has_gene = {
                        category = gene_hair_type
                        template = hair_curly
                    }            
                }
                portrait_steppe_clothing_trigger = yes
            }
            modifier = { # Muslims should always have a beard
                add = 200
                religion = religion:islam_religion
                portrait_steppe_clothing_trigger = yes
            }
            modifier = {
                add = -100
                OR = {
                    is_from_ruler_designer = yes
                    has_character_flag = has_scripted_appearance
                }
            }
        }
    }

    northern_straight = {
        dna_modifiers = {
            accessory = {
                mode = add
                gene = beards
                template = northern_beards_straight
                range = { 0 1 } # For the randomness to work correctly
            }
        }   
        # outfit_tags = { no_clothes }
        weight = {
            base = 0
            modifier = {
                add = 50
                OR = {
                     has_gene = {
                        category = gene_hair_type
                        template = hair_straight
                    }       
                    has_gene = {
                        category = gene_hair_type
                        template = hair_wavy
                    }            
                }
                portrait_northern_clothing_trigger = yes
            }
            modifier = { # Muslims should always have a beard
                add = 200
                religion = religion:islam_religion
                portrait_northern_clothing_trigger = yes
            }
            modifier = {
                add = -100
                OR = {
                    is_from_ruler_designer = yes
                    has_character_flag = has_scripted_appearance
                }
            }
        }
    }

    northern_curly = {
        dna_modifiers = {
            accessory = {
                mode = add
                gene = beards
                template = northern_beards_curly
                range = { 0 1 } # For the randomness to work correctly
            }
        }   
        # outfit_tags = { no_clothes }
        weight = {
            base = 0
            modifier = {
                add = 90
                OR = {
                    has_gene = {
                        category = gene_hair_type
                        template = hair_wavy
                    }       
                    has_gene = {
                        category = gene_hair_type
                        template = hair_curly
                    }            
                }
                portrait_northern_clothing_trigger = yes
            }
            modifier = { # Muslims should always have a beard
                add = 200
                religion = religion:islam_religion
                portrait_northern_clothing_trigger = yes
            }
            modifier = {
                add = -100
                OR = {
                    is_from_ruler_designer = yes
                    has_character_flag = has_scripted_appearance
                }
            }
        }
    }

    african = {
        dna_modifiers = {
            accessory = {
                mode = add
                gene = beards
                template = sub_saharan_beards_afro
                range = { 0 1 } # For the randomness to work correctly
            }
        }   
        # outfit_tags = { no_clothes }
        weight = {
            base = 0
            modifier = {
                add = 70
                 has_gene = {
                    category = gene_hair_type
                    template = hair_afro
                }              
            }
            modifier = { # Muslims should always have a beard
                add = 200
                religion = religion:islam_religion
                portrait_african_clothing_trigger = yes
            }
            modifier = {
                add = -100
                OR = {
                    is_from_ruler_designer = yes
                    has_character_flag = has_scripted_appearance
                }
            }
        }
    }

    fp1_straight = {
        dna_modifiers = {
            accessory = {
                mode = add
                gene = beards
                template = fp1_beards_straight
                range = { 0 1 } # For the randomness to work correctly
            }
        }   
        # outfit_tags = { no_clothes }
        weight = {
            base = 0
            modifier = {
                add = 90
                OR = {
                     has_gene = {
                        category = gene_hair_type
                        template = hair_straight
                    }       
                    has_gene = {
                        category = gene_hair_type
                        template = hair_wavy
                    }            
                }
                portrait_fp1_norse_clothing_trigger = yes
            }
            modifier = { # Muslims should always have a beard
                add = 200
                religion = religion:islam_religion
                portrait_fp1_norse_clothing_trigger = yes
            }
            modifier = {
                add = -100
                OR = {
                    is_from_ruler_designer = yes
                    has_character_flag = has_scripted_appearance
                }
            }
        }
    }

    fp1_curly = {
        dna_modifiers = {
            accessory = {
                mode = add
                gene = beards
                template = fp1_beards_curly
                range = { 0 1 } # For the randomness to work correctly
            }
        }   
        # outfit_tags = { no_clothes }
        weight = {
            base = 0
            modifier = {
                add = 70
                OR = {
                     has_gene = {
                        category = gene_hair_type
                        template = hair_wavy
                    }       
                    has_gene = {
                        category = gene_hair_type
                        template = hair_curly
                    }            
                }
                portrait_fp1_norse_clothing_trigger = yes
            }
            modifier = { # Muslims should always have a beard
                add = 200
                religion = religion:islam_religion
                portrait_northern_clothing_trigger = yes
            }
            modifier = {
                add = -100
                OR = {
                    is_from_ruler_designer = yes
                    has_character_flag = has_scripted_appearance
                }
            }
        }
    }


}