From;To;Type;Through;start_x;start_y;stop_x;stop_y;Comment
#DAMERIA
11;935;sea;1271;1116;2362;1126;2368;Middletooth-Millmore
11;936;sea;1271;1100;2362;1084;2367;Middletooth-Pointsfort
13;936;sea;1271;1050;2355;1060;2361;Toothsend-Pointsfort
928;935;sea;1271;1149;2388;1143;2383;Toothspier-Millmore
2;934;sea;1272;1307;2394;1317;2388;Eargate-Floodtower Pass
276;934;sea;1272;1320;2372;1318;2381;Damescross-Floodtower Pass
-1;-1;;-1;-1;-1;-1;-1;