679 = {

    # Misc
    culture = sadnatu
    religion = cult_of_the_dame
	holding = tribal_holding

    # History
}

680 = {

    # Misc
    culture = sadnatu
    religion = cult_of_the_dame
	holding = tribal_holding

    # History
}

682 = {

    # Misc
    culture = sadnatu
    religion = cult_of_the_dame
	holding = tribal_holding

    # History
}

597 = {

    # Misc
    culture = sadnatu
    religion = cult_of_the_dame
	holding = tribal_holding

    # History
}

683 = {

    # Misc
    culture = sadnatu
    religion = cult_of_the_dame
	holding = tribal_holding

    # History
}

685 = {

    # Misc
    culture = sadnatu
    religion = cult_of_the_dame
	holding = tribal_holding

    # History
}

688 = {

    # Misc
    culture = sadnatu
    religion = cult_of_the_dame
	holding = tribal_holding

    # History
	1020.1.1 = {
		special_building_slot = ekluzagnu_01
		special_building = ekluzagnu_01
	}
}

689 = {

    # Misc
    culture = sadnatu
    religion = cult_of_the_dame
	holding = tribal_holding

    # History
	1020.1.1 = {
		special_building_slot = sad_uras_mines_01
		special_building = sad_uras_mines_01
	}
}

687 = {

    # Misc
    culture = sadnatu
    religion = cult_of_the_dame
	holding = tribal_holding

    # History
}

691 = {

    # Misc
    culture = sadnatu
    religion = cult_of_the_dame
	holding = tribal_holding

    # History
}

692 = {

    # Misc
    culture = sadnatu
    religion = cult_of_the_dame
	holding = tribal_holding

    # History
}

693 = {

    # Misc
    culture = sadnatu
    religion = cult_of_the_dame
	holding = tribal_holding

    # History
}

686 = {

    # Misc
    culture = sadnatu
    religion = cult_of_the_dame
	holding = tribal_holding

    # History
}