664 = {

    # Misc
    culture = gelkar
    religion = cult_of_the_dame

    # History
}

665 = {

    # Misc
    culture = gelkar
    religion = cult_of_the_dame

    # History
}

655 = {

    # Misc
    culture = gelkar
    religion = cult_of_the_dame

    # History
}

656 = {

    # Misc
    culture = gelkar
    religion = cult_of_the_dame

    # History
}

652 = {

    # Misc
    culture = gelkar
    religion = cult_of_the_dame

    # History
}

653 = {

    # Misc
    culture = gelkar
    religion = cult_of_the_dame

    # History
}

654 = {

    # Misc
    culture = gelkar
    religion = cult_of_the_dame

    # History
}